{
    "name": "be.eloistree.stereorecorder",
    "references": [
        "GUID:c78e194f98424164eae907e1d49199ab",
        "GUID:8dd216bc0befb7340b49a6dc1f6db7c5",
        "GUID:d37783c52473adb4c9d3e07113a3e61b"
    ],
    "includePlatforms": [],
    "excludePlatforms": [],
    "allowUnsafeCode": false,
    "overrideReferences": true,
    "precompiledReferences": [],
    "autoReferenced": true,
    "defineConstraints": [],
    "versionDefines": [],
    "noEngineReferences": false
}